{
    "script": "index.js",
    "watch": true,
    "ignore_watch": ["logs", "node_modules"],
    "watch_options": {
        "followSymlinks": false
    },
    "max_memory_restart": "1000M",
    "name": "server",
    "log_date_format": "YYYY-MM-DD HH:mm Z"
}